define i32 @main() {
entry:
  br label %entry.while.cond

entry.while.cond:                                 ; preds = %entry.while.body, %entry
  %i.0 = phi i32 [ 1, %entry ], [ %.7, %entry.while.body ]
  %.6 = icmp slt i32 %i.0, 10
  br i1 %.6, label %entry.while.body, label %entry.endwhile

entry.while.body:                                 ; preds = %entry.while.cond
  %a = alloca float, i32 1
  ; CHECK: %.7 = add i32 %i.0, 1
  %.7 = add i32 %i.0, 1
  %x = fsub float 1.0, 0.5
  ; CHECK: store volatile float 5.{{0+}}e-{{0*}}1, float* %a
  store volatile float %x, float* %a
  br label %entry.while.cond

entry.endwhile:                                   ; preds = %entry.while.cond
  ret i32 0
}
