define i32 @main() {
entry:
  br label %entry.while.cond

entry.while.cond:                                 ; preds = %entry.while.body, %entry
  %i.0 = phi i32 [ 1, %entry ], [ %.7, %entry.while.body ]
  %.6 = icmp slt i32 %i.0, 10
  br i1 %.6, label %entry.while.body, label %entry.endwhile

entry.while.body:                                 ; preds = %entry.while.cond
  %a = alloca double, i32 1
  ; CHECK: %.7 = add i32 %i.0, 1
  %.7 = add i32 %i.0, 1
  %x = fmul double 2.0, 3.0
  ; CHECK: store volatile double 6.0{{.*}}, double* %a
  store volatile double %x, double* %a
  br label %entry.while.cond

entry.endwhile:                                   ; preds = %entry.while.cond
  ret i32 0
}
